Days of Code
…
## Adding missing grouping variables: `State`, `YearMonth`

## # A tibble: 6 x 3
## # Groups:   State, YearMonth [6]
##   State YearMonth Deaths
##   <chr> <chr>      <int>
## 1 Texas 1999-01       72
## 2 Texas 1999-02       97
## 3 Texas 1999-03      101
## 4 Texas 1999-04       99
## 5 Texas 1999-05       86
## 6 Texas 1999-06       77

## # A tibble: 216 x 2
## # Groups:   State [?]
##    State YearMonth
##    <chr> <chr>    
##  1 Texas 1999-01  
##  2 Texas 1999-02  
##  3 Texas 1999-03  
##  4 Texas 1999-04  
##  5 Texas 1999-05  
##  6 Texas 1999-06  
##  7 Texas 1999-07  
##  8 Texas 1999-08  
##  9 Texas 1999-09  
## 10 Texas 1999-10  
## # ... with 206 more rows
…
